-- Merging decision tree log ---
manifest
ADDED from /home/d3fkon/AndroidStudioProjects/AllTvQuotes/app/src/main/AndroidManifest.xml:2:1-33:12
	package
		ADDED from /home/d3fkon/AndroidStudioProjects/AllTvQuotes/app/src/main/AndroidManifest.xml:3:5-49
		INJECTED from /home/d3fkon/AndroidStudioProjects/AllTvQuotes/app/src/main/AndroidManifest.xml
		INJECTED from /home/d3fkon/AndroidStudioProjects/AllTvQuotes/app/src/main/AndroidManifest.xml
	android:versionName
		INJECTED from /home/d3fkon/AndroidStudioProjects/AllTvQuotes/app/src/main/AndroidManifest.xml
		INJECTED from /home/d3fkon/AndroidStudioProjects/AllTvQuotes/app/src/main/AndroidManifest.xml
	xmlns:android
		ADDED from /home/d3fkon/AndroidStudioProjects/AllTvQuotes/app/src/main/AndroidManifest.xml:2:11-69
	android:versionCode
		INJECTED from /home/d3fkon/AndroidStudioProjects/AllTvQuotes/app/src/main/AndroidManifest.xml
		INJECTED from /home/d3fkon/AndroidStudioProjects/AllTvQuotes/app/src/main/AndroidManifest.xml
uses-permission#android.permission.INTERNET
ADDED from /home/d3fkon/AndroidStudioProjects/AllTvQuotes/app/src/main/AndroidManifest.xml:5:5-67
MERGED from [com.google.android.gms:play-services-ads-lite:10.0.1] /home/d3fkon/.android/build-cache/2d92d2e24b2c64b010d07376e254f58db1bfd558/output/AndroidManifest.xml:19:5-66
MERGED from [com.google.firebase:firebase-analytics:10.0.1] /home/d3fkon/.android/build-cache/8333920c756b21f988ee817e1b817febccc5abe0/output/AndroidManifest.xml:20:5-66
MERGED from [com.google.firebase:firebase-analytics-impl:10.0.1] /home/d3fkon/.android/build-cache/979e4177301bd5a056e504f35421e801378346b1/output/AndroidManifest.xml:20:5-66
MERGED from [com.google.firebase:firebase-iid:10.0.1] /home/d3fkon/.android/build-cache/da0a27f6ccd78ea221aab6c9352a4fc501c88cb1/output/AndroidManifest.xml:20:5-66
	android:name
		ADDED from /home/d3fkon/AndroidStudioProjects/AllTvQuotes/app/src/main/AndroidManifest.xml:5:22-64
uses-permission#android.permission.ACCESS_NETWORK_STATE
ADDED from /home/d3fkon/AndroidStudioProjects/AllTvQuotes/app/src/main/AndroidManifest.xml:6:5-79
MERGED from [com.google.android.gms:play-services-ads-lite:10.0.1] /home/d3fkon/.android/build-cache/2d92d2e24b2c64b010d07376e254f58db1bfd558/output/AndroidManifest.xml:20:5-78
MERGED from [com.google.firebase:firebase-analytics:10.0.1] /home/d3fkon/.android/build-cache/8333920c756b21f988ee817e1b817febccc5abe0/output/AndroidManifest.xml:21:5-78
MERGED from [com.google.firebase:firebase-analytics-impl:10.0.1] /home/d3fkon/.android/build-cache/979e4177301bd5a056e504f35421e801378346b1/output/AndroidManifest.xml:21:5-78
MERGED from [com.google.firebase:firebase-iid:10.0.1] /home/d3fkon/.android/build-cache/da0a27f6ccd78ea221aab6c9352a4fc501c88cb1/output/AndroidManifest.xml:19:5-78
	android:name
		ADDED from /home/d3fkon/AndroidStudioProjects/AllTvQuotes/app/src/main/AndroidManifest.xml:6:22-76
application
ADDED from /home/d3fkon/AndroidStudioProjects/AllTvQuotes/app/src/main/AndroidManifest.xml:8:5-31:19
MERGED from [com.android.support.constraint:constraint-layout:1.0.2] /home/d3fkon/.android/build-cache/9ce32a10e9716b7c5b12a93ec564b5616589b775/output/AndroidManifest.xml:9:5-20
MERGED from [com.android.support:cardview-v7:25.3.1] /home/d3fkon/.android/build-cache/8f6815349fbc74c01be59ab4a49f53ef09cad4cd/output/AndroidManifest.xml:26:5-20
MERGED from [com.android.support:design:25.3.1] /home/d3fkon/.android/build-cache/a402e8141e7482423b7c301d237e4f37cb0c4365/output/AndroidManifest.xml:29:5-20
MERGED from [com.android.support:appcompat-v7:25.3.1] /home/d3fkon/.android/build-cache/cbd75acf50f9ec877a92850349eb462c641e7235/output/AndroidManifest.xml:29:5-20
MERGED from [com.android.support:animated-vector-drawable:25.3.1] /home/d3fkon/.android/build-cache/36a5ffee3642f892ef1f82377d9725ed6e50e0ba/output/AndroidManifest.xml:26:5-20
MERGED from [com.android.support:support-vector-drawable:25.3.1] /home/d3fkon/.android/build-cache/b98606c01310a0ad97b8ea4f4f1329b6bf475dba/output/AndroidManifest.xml:26:5-20
MERGED from [com.android.support:transition:25.3.1] /home/d3fkon/.android/build-cache/ba93c05e6c15a3d886c1c39f7137ab9d15783619/output/AndroidManifest.xml:26:5-20
MERGED from [de.hdodenhof:circleimageview:2.1.0] /home/d3fkon/.android/build-cache/299936006cd2342d939d7c3a8db9d59d2b1c804a/output/AndroidManifest.xml:9:5-20
MERGED from [com.google.firebase:firebase-auth:10.0.1] /home/d3fkon/.android/build-cache/83300d21ea9c0e2bf07ba054f3431725cb34c27c/output/AndroidManifest.xml:19:5-20:19
MERGED from [com.google.firebase:firebase-ads:10.0.1] /home/d3fkon/.android/build-cache/e35597bec54bd716258cda307f2a82a5c346de22/output/AndroidManifest.xml:5:5-20
MERGED from [com.google.android.gms:play-services-ads-lite:10.0.1] /home/d3fkon/.android/build-cache/2d92d2e24b2c64b010d07376e254f58db1bfd558/output/AndroidManifest.xml:23:5-27:19
MERGED from [com.google.android.gms:play-services-clearcut:10.0.1] /home/d3fkon/.android/build-cache/4866a09e71b7aadcfdcca36759e4b6dd32b876ae/output/AndroidManifest.xml:18:5-19
MERGED from [com.google.android.gms:play-services-base:10.0.1] /home/d3fkon/.android/build-cache/1c2d4201bf3f86bdeb563da215ab0dfd31d290dc/output/AndroidManifest.xml:18:5-20:19
MERGED from [com.google.android.gms:play-services-gass:10.0.1] /home/d3fkon/.android/build-cache/496dbc6074443c69536e34524630f332e8383255/output/AndroidManifest.xml:4:5-19
MERGED from [com.google.firebase:firebase-messaging:10.0.1] /home/d3fkon/.android/build-cache/48f41dea4c9593a6c2c88bf5a489fed083dcea41/output/AndroidManifest.xml:19:5-29:19
MERGED from [com.danikula:videocache:2.6.4] /home/d3fkon/.android/build-cache/5b441bcbe7cec134fcda86baae6334b1cd32722f/output/AndroidManifest.xml:12:5-20
MERGED from [com.google.firebase:firebase-core:10.0.1] /home/d3fkon/.android/build-cache/6d7efe1ed7b472af741de571b349df48d3375714/output/AndroidManifest.xml:5:5-20
MERGED from [com.google.firebase:firebase-analytics:10.0.1] /home/d3fkon/.android/build-cache/8333920c756b21f988ee817e1b817febccc5abe0/output/AndroidManifest.xml:24:5-33:19
MERGED from [com.google.firebase:firebase-analytics-impl:10.0.1] /home/d3fkon/.android/build-cache/979e4177301bd5a056e504f35421e801378346b1/output/AndroidManifest.xml:24:5-28:19
MERGED from [com.google.firebase:firebase-iid:10.0.1] /home/d3fkon/.android/build-cache/da0a27f6ccd78ea221aab6c9352a4fc501c88cb1/output/AndroidManifest.xml:28:5-50:19
MERGED from [com.google.firebase:firebase-common:10.0.1] /home/d3fkon/.android/build-cache/8883bfcd89f23c7bb94bdf5a8ad7ebc1dfc6908c/output/AndroidManifest.xml:4:5-7:19
MERGED from [com.google.android.gms:play-services-tasks:10.0.1] /home/d3fkon/.android/build-cache/7d178671c9ccd758804271049722c5ed82c16da8/output/AndroidManifest.xml:4:5-19
MERGED from [com.google.android.gms:play-services-basement:10.0.1] /home/d3fkon/.android/build-cache/37fbf1099b28c615e072aafb9aeea843ee0090ab/output/AndroidManifest.xml:19:5-21:19
MERGED from [com.android.support:support-v4:25.3.1] /home/d3fkon/.android/build-cache/f553369c4b876d1716a1d8007896ecf0101ef872/output/AndroidManifest.xml:29:5-20
MERGED from [com.android.support:support-fragment:25.3.1] /home/d3fkon/.android/build-cache/688adabb961443803a501ee6a30ac9d8702ac57f/output/AndroidManifest.xml:29:5-20
MERGED from [com.android.support:support-media-compat:25.3.1] /home/d3fkon/.android/build-cache/cc5af662b9f721d657b3c2e9a4f07062386032eb/output/AndroidManifest.xml:29:5-20
MERGED from [com.android.support:support-core-ui:25.3.1] /home/d3fkon/.android/build-cache/1850890752bc5ea01f49fa0c2edb01d59b011953/output/AndroidManifest.xml:29:5-20
MERGED from [com.android.support:support-core-utils:25.3.1] /home/d3fkon/.android/build-cache/5e1184753c6aa67f1370eff5de1b1c0f973dcaa0/output/AndroidManifest.xml:29:5-20
MERGED from [com.android.support:support-compat:25.3.1] /home/d3fkon/.android/build-cache/5ba5b0adfffab5a5e6bf8b88d45df69b216724e8/output/AndroidManifest.xml:29:5-20
	android:label
		ADDED from /home/d3fkon/AndroidStudioProjects/AllTvQuotes/app/src/main/AndroidManifest.xml:11:9-41
	android:supportsRtl
		ADDED from /home/d3fkon/AndroidStudioProjects/AllTvQuotes/app/src/main/AndroidManifest.xml:13:9-35
	android:roundIcon
		ADDED from /home/d3fkon/AndroidStudioProjects/AllTvQuotes/app/src/main/AndroidManifest.xml:12:9-54
	android:allowBackup
		ADDED from /home/d3fkon/AndroidStudioProjects/AllTvQuotes/app/src/main/AndroidManifest.xml:9:9-35
	android:icon
		ADDED from /home/d3fkon/AndroidStudioProjects/AllTvQuotes/app/src/main/AndroidManifest.xml:10:9-43
	android:theme
		ADDED from /home/d3fkon/AndroidStudioProjects/AllTvQuotes/app/src/main/AndroidManifest.xml:14:9-40
activity#com.alltvquotes.d3fkon.alltvquotes.IndexActivity
ADDED from /home/d3fkon/AndroidStudioProjects/AllTvQuotes/app/src/main/AndroidManifest.xml:15:9-23:20
	android:screenOrientation
		ADDED from /home/d3fkon/AndroidStudioProjects/AllTvQuotes/app/src/main/AndroidManifest.xml:17:13-49
	android:name
		ADDED from /home/d3fkon/AndroidStudioProjects/AllTvQuotes/app/src/main/AndroidManifest.xml:16:13-42
intent-filter#android.intent.action.MAIN+android.intent.category.LAUNCHER
ADDED from /home/d3fkon/AndroidStudioProjects/AllTvQuotes/app/src/main/AndroidManifest.xml:18:13-22:29
action#android.intent.action.MAIN
ADDED from /home/d3fkon/AndroidStudioProjects/AllTvQuotes/app/src/main/AndroidManifest.xml:19:17-69
	android:name
		ADDED from /home/d3fkon/AndroidStudioProjects/AllTvQuotes/app/src/main/AndroidManifest.xml:19:25-66
category#android.intent.category.LAUNCHER
ADDED from /home/d3fkon/AndroidStudioProjects/AllTvQuotes/app/src/main/AndroidManifest.xml:21:17-77
	android:name
		ADDED from /home/d3fkon/AndroidStudioProjects/AllTvQuotes/app/src/main/AndroidManifest.xml:21:27-74
activity#com.alltvquotes.d3fkon.alltvquotes.PlayerActivity
ADDED from /home/d3fkon/AndroidStudioProjects/AllTvQuotes/app/src/main/AndroidManifest.xml:24:9-27:50
	android:screenOrientation
		ADDED from /home/d3fkon/AndroidStudioProjects/AllTvQuotes/app/src/main/AndroidManifest.xml:26:13-49
	android:theme
		ADDED from /home/d3fkon/AndroidStudioProjects/AllTvQuotes/app/src/main/AndroidManifest.xml:27:13-47
	android:name
		ADDED from /home/d3fkon/AndroidStudioProjects/AllTvQuotes/app/src/main/AndroidManifest.xml:25:13-43
activity#com.alltvquotes.d3fkon.alltvquotes.InfoActivity
ADDED from /home/d3fkon/AndroidStudioProjects/AllTvQuotes/app/src/main/AndroidManifest.xml:28:9-50
	android:name
		ADDED from /home/d3fkon/AndroidStudioProjects/AllTvQuotes/app/src/main/AndroidManifest.xml:28:19-47
activity#com.alltvquotes.d3fkon.alltvquotes.AuthorSpecificActivity
ADDED from /home/d3fkon/AndroidStudioProjects/AllTvQuotes/app/src/main/AndroidManifest.xml:29:9-60
	android:name
		ADDED from /home/d3fkon/AndroidStudioProjects/AllTvQuotes/app/src/main/AndroidManifest.xml:29:19-57
activity#com.alltvquotes.d3fkon.alltvquotes.YTPlayerActivity
ADDED from /home/d3fkon/AndroidStudioProjects/AllTvQuotes/app/src/main/AndroidManifest.xml:30:9-54
	android:name
		ADDED from /home/d3fkon/AndroidStudioProjects/AllTvQuotes/app/src/main/AndroidManifest.xml:30:19-51
uses-sdk
INJECTED from /home/d3fkon/AndroidStudioProjects/AllTvQuotes/app/src/main/AndroidManifest.xml reason: use-sdk injection requested
MERGED from [com.android.support.constraint:constraint-layout:1.0.2] /home/d3fkon/.android/build-cache/9ce32a10e9716b7c5b12a93ec564b5616589b775/output/AndroidManifest.xml:5:5-7:41
MERGED from [com.android.support:cardview-v7:25.3.1] /home/d3fkon/.android/build-cache/8f6815349fbc74c01be59ab4a49f53ef09cad4cd/output/AndroidManifest.xml:20:5-43
MERGED from [com.google.firebase:firebase-database:10.0.1] /home/d3fkon/.android/build-cache/9689f6a0ac42109df3d9add97fcc03a50ff4a792/output/AndroidManifest.xml:3:5-42
MERGED from [com.google.firebase:firebase-database-connection:10.0.1] /home/d3fkon/.android/build-cache/2cc2ad6f43c9f1f6126b70f1bee71e6fde1e1f0f/output/AndroidManifest.xml:3:5-42
MERGED from [com.android.support:design:25.3.1] /home/d3fkon/.android/build-cache/a402e8141e7482423b7c301d237e4f37cb0c4365/output/AndroidManifest.xml:21:5-23:62
MERGED from [com.android.support:appcompat-v7:25.3.1] /home/d3fkon/.android/build-cache/cbd75acf50f9ec877a92850349eb462c641e7235/output/AndroidManifest.xml:21:5-23:78
MERGED from [com.android.support:animated-vector-drawable:25.3.1] /home/d3fkon/.android/build-cache/36a5ffee3642f892ef1f82377d9725ed6e50e0ba/output/AndroidManifest.xml:20:5-44
MERGED from [com.android.support:support-vector-drawable:25.3.1] /home/d3fkon/.android/build-cache/b98606c01310a0ad97b8ea4f4f1329b6bf475dba/output/AndroidManifest.xml:20:5-43
MERGED from [com.android.support:recyclerview-v7:25.3.1] /home/d3fkon/.android/build-cache/d9f509c23235df7cf9b5b683ce4a2df71c46225f/output/AndroidManifest.xml:20:5-43
MERGED from [com.android.support:transition:25.3.1] /home/d3fkon/.android/build-cache/ba93c05e6c15a3d886c1c39f7137ab9d15783619/output/AndroidManifest.xml:20:5-44
MERGED from [de.hdodenhof:circleimageview:2.1.0] /home/d3fkon/.android/build-cache/299936006cd2342d939d7c3a8db9d59d2b1c804a/output/AndroidManifest.xml:5:5-7:41
MERGED from [com.google.firebase:firebase-storage:10.0.1] /home/d3fkon/.android/build-cache/12579d67b94b50b3eafe4e2416cca20664fd6071/output/AndroidManifest.xml:3:5-42
MERGED from [com.google.firebase:firebase-storage-common:10.0.1] /home/d3fkon/.android/build-cache/161cb877571a279798a50772570138c7df617006/output/AndroidManifest.xml:3:5-42
MERGED from [com.google.firebase:firebase-auth:10.0.1] /home/d3fkon/.android/build-cache/83300d21ea9c0e2bf07ba054f3431725cb34c27c/output/AndroidManifest.xml:17:5-42
MERGED from [com.google.firebase:firebase-ads:10.0.1] /home/d3fkon/.android/build-cache/e35597bec54bd716258cda307f2a82a5c346de22/output/AndroidManifest.xml:4:5-42
MERGED from [com.google.android.gms:play-services-ads:10.0.1] /home/d3fkon/.android/build-cache/296017cf1f13ddd1d7ca1fc3cda7ee4a8c270991/output/AndroidManifest.xml:17:5-42
MERGED from [com.google.android.gms:play-services-ads-lite:10.0.1] /home/d3fkon/.android/build-cache/2d92d2e24b2c64b010d07376e254f58db1bfd558/output/AndroidManifest.xml:22:5-42
MERGED from [com.google.android.gms:play-services-clearcut:10.0.1] /home/d3fkon/.android/build-cache/4866a09e71b7aadcfdcca36759e4b6dd32b876ae/output/AndroidManifest.xml:17:5-42
MERGED from [com.google.android.gms:play-services-base:10.0.1] /home/d3fkon/.android/build-cache/1c2d4201bf3f86bdeb563da215ab0dfd31d290dc/output/AndroidManifest.xml:17:5-42
MERGED from [com.google.android.gms:play-services-gass:10.0.1] /home/d3fkon/.android/build-cache/496dbc6074443c69536e34524630f332e8383255/output/AndroidManifest.xml:3:5-42
MERGED from [com.google.firebase:firebase-messaging:10.0.1] /home/d3fkon/.android/build-cache/48f41dea4c9593a6c2c88bf5a489fed083dcea41/output/AndroidManifest.xml:17:5-42
MERGED from [com.danikula:videocache:2.6.4] /home/d3fkon/.android/build-cache/5b441bcbe7cec134fcda86baae6334b1cd32722f/output/AndroidManifest.xml:8:5-10:41
MERGED from [com.daimajia.easing:library:2.0] /home/d3fkon/.android/build-cache/d7a0f444c2e1a7816730e8cbd3bd66c289676398/output/AndroidManifest.xml:8:5-10:41
MERGED from [com.daimajia.androidanimations:library:2.2] /home/d3fkon/.android/build-cache/01302645e0d33e753c530d839338644eac17f50e/output/AndroidManifest.xml:8:5-10:41
MERGED from [com.google.firebase:firebase-core:10.0.1] /home/d3fkon/.android/build-cache/6d7efe1ed7b472af741de571b349df48d3375714/output/AndroidManifest.xml:4:5-42
MERGED from [com.google.firebase:firebase-analytics:10.0.1] /home/d3fkon/.android/build-cache/8333920c756b21f988ee817e1b817febccc5abe0/output/AndroidManifest.xml:17:5-42
MERGED from [com.google.firebase:firebase-analytics-impl:10.0.1] /home/d3fkon/.android/build-cache/979e4177301bd5a056e504f35421e801378346b1/output/AndroidManifest.xml:17:5-42
MERGED from [com.google.firebase:firebase-iid:10.0.1] /home/d3fkon/.android/build-cache/da0a27f6ccd78ea221aab6c9352a4fc501c88cb1/output/AndroidManifest.xml:17:5-42
MERGED from [com.google.firebase:firebase-common:10.0.1] /home/d3fkon/.android/build-cache/8883bfcd89f23c7bb94bdf5a8ad7ebc1dfc6908c/output/AndroidManifest.xml:3:5-42
MERGED from [com.google.android.gms:play-services-tasks:10.0.1] /home/d3fkon/.android/build-cache/7d178671c9ccd758804271049722c5ed82c16da8/output/AndroidManifest.xml:3:5-42
MERGED from [com.google.android.gms:play-services-basement:10.0.1] /home/d3fkon/.android/build-cache/37fbf1099b28c615e072aafb9aeea843ee0090ab/output/AndroidManifest.xml:17:5-42
MERGED from [com.android.support:support-v4:25.3.1] /home/d3fkon/.android/build-cache/f553369c4b876d1716a1d8007896ecf0101ef872/output/AndroidManifest.xml:21:5-23:54
MERGED from [com.android.support:support-fragment:25.3.1] /home/d3fkon/.android/build-cache/688adabb961443803a501ee6a30ac9d8702ac57f/output/AndroidManifest.xml:21:5-23:60
MERGED from [com.android.support:support-media-compat:25.3.1] /home/d3fkon/.android/build-cache/cc5af662b9f721d657b3c2e9a4f07062386032eb/output/AndroidManifest.xml:21:5-23:63
MERGED from [com.android.support:support-core-ui:25.3.1] /home/d3fkon/.android/build-cache/1850890752bc5ea01f49fa0c2edb01d59b011953/output/AndroidManifest.xml:21:5-23:58
MERGED from [com.android.support:support-core-utils:25.3.1] /home/d3fkon/.android/build-cache/5e1184753c6aa67f1370eff5de1b1c0f973dcaa0/output/AndroidManifest.xml:21:5-23:61
MERGED from [com.android.support:support-compat:25.3.1] /home/d3fkon/.android/build-cache/5ba5b0adfffab5a5e6bf8b88d45df69b216724e8/output/AndroidManifest.xml:21:5-23:58
	tools:overrideLibrary
		ADDED from [com.android.support:design:25.3.1] /home/d3fkon/.android/build-cache/a402e8141e7482423b7c301d237e4f37cb0c4365/output/AndroidManifest.xml:23:9-59
	android:targetSdkVersion
		INJECTED from /home/d3fkon/AndroidStudioProjects/AllTvQuotes/app/src/main/AndroidManifest.xml
		INJECTED from /home/d3fkon/AndroidStudioProjects/AllTvQuotes/app/src/main/AndroidManifest.xml
	android:minSdkVersion
		INJECTED from /home/d3fkon/AndroidStudioProjects/AllTvQuotes/app/src/main/AndroidManifest.xml
		INJECTED from /home/d3fkon/AndroidStudioProjects/AllTvQuotes/app/src/main/AndroidManifest.xml
meta-data#android.support.VERSION
ADDED from [com.android.support:cardview-v7:25.3.1] /home/d3fkon/.android/build-cache/8f6815349fbc74c01be59ab4a49f53ef09cad4cd/output/AndroidManifest.xml:22:5-24:34
MERGED from [com.android.support:design:25.3.1] /home/d3fkon/.android/build-cache/a402e8141e7482423b7c301d237e4f37cb0c4365/output/AndroidManifest.xml:25:5-27:34
MERGED from [com.android.support:appcompat-v7:25.3.1] /home/d3fkon/.android/build-cache/cbd75acf50f9ec877a92850349eb462c641e7235/output/AndroidManifest.xml:25:5-27:34
MERGED from [com.android.support:animated-vector-drawable:25.3.1] /home/d3fkon/.android/build-cache/36a5ffee3642f892ef1f82377d9725ed6e50e0ba/output/AndroidManifest.xml:22:5-24:34
MERGED from [com.android.support:support-vector-drawable:25.3.1] /home/d3fkon/.android/build-cache/b98606c01310a0ad97b8ea4f4f1329b6bf475dba/output/AndroidManifest.xml:22:5-24:34
MERGED from [com.android.support:recyclerview-v7:25.3.1] /home/d3fkon/.android/build-cache/d9f509c23235df7cf9b5b683ce4a2df71c46225f/output/AndroidManifest.xml:22:5-24:34
MERGED from [com.android.support:transition:25.3.1] /home/d3fkon/.android/build-cache/ba93c05e6c15a3d886c1c39f7137ab9d15783619/output/AndroidManifest.xml:22:5-24:34
MERGED from [com.android.support:support-v4:25.3.1] /home/d3fkon/.android/build-cache/f553369c4b876d1716a1d8007896ecf0101ef872/output/AndroidManifest.xml:25:5-27:34
MERGED from [com.android.support:support-fragment:25.3.1] /home/d3fkon/.android/build-cache/688adabb961443803a501ee6a30ac9d8702ac57f/output/AndroidManifest.xml:25:5-27:34
MERGED from [com.android.support:support-media-compat:25.3.1] /home/d3fkon/.android/build-cache/cc5af662b9f721d657b3c2e9a4f07062386032eb/output/AndroidManifest.xml:25:5-27:34
MERGED from [com.android.support:support-core-ui:25.3.1] /home/d3fkon/.android/build-cache/1850890752bc5ea01f49fa0c2edb01d59b011953/output/AndroidManifest.xml:25:5-27:34
MERGED from [com.android.support:support-core-utils:25.3.1] /home/d3fkon/.android/build-cache/5e1184753c6aa67f1370eff5de1b1c0f973dcaa0/output/AndroidManifest.xml:25:5-27:34
MERGED from [com.android.support:support-compat:25.3.1] /home/d3fkon/.android/build-cache/5ba5b0adfffab5a5e6bf8b88d45df69b216724e8/output/AndroidManifest.xml:25:5-27:34
	android:value
		ADDED from [com.android.support:cardview-v7:25.3.1] /home/d3fkon/.android/build-cache/8f6815349fbc74c01be59ab4a49f53ef09cad4cd/output/AndroidManifest.xml:24:9-31
	android:name
		ADDED from [com.android.support:cardview-v7:25.3.1] /home/d3fkon/.android/build-cache/8f6815349fbc74c01be59ab4a49f53ef09cad4cd/output/AndroidManifest.xml:23:9-47
activity#com.google.android.gms.ads.AdActivity
ADDED from [com.google.android.gms:play-services-ads-lite:10.0.1] /home/d3fkon/.android/build-cache/2d92d2e24b2c64b010d07376e254f58db1bfd558/output/AndroidManifest.xml:25:9-232
	android:configChanges
		ADDED from [com.google.android.gms:play-services-ads-lite:10.0.1] /home/d3fkon/.android/build-cache/2d92d2e24b2c64b010d07376e254f58db1bfd558/output/AndroidManifest.xml:25:72-181
	android:theme
		ADDED from [com.google.android.gms:play-services-ads-lite:10.0.1] /home/d3fkon/.android/build-cache/2d92d2e24b2c64b010d07376e254f58db1bfd558/output/AndroidManifest.xml:25:182-230
	android:name
		ADDED from [com.google.android.gms:play-services-ads-lite:10.0.1] /home/d3fkon/.android/build-cache/2d92d2e24b2c64b010d07376e254f58db1bfd558/output/AndroidManifest.xml:25:19-71
activity#com.google.android.gms.ads.purchase.InAppPurchaseActivity
ADDED from [com.google.android.gms:play-services-ads-lite:10.0.1] /home/d3fkon/.android/build-cache/2d92d2e24b2c64b010d07376e254f58db1bfd558/output/AndroidManifest.xml:26:9-131
	android:theme
		ADDED from [com.google.android.gms:play-services-ads-lite:10.0.1] /home/d3fkon/.android/build-cache/2d92d2e24b2c64b010d07376e254f58db1bfd558/output/AndroidManifest.xml:26:92-129
	android:name
		ADDED from [com.google.android.gms:play-services-ads-lite:10.0.1] /home/d3fkon/.android/build-cache/2d92d2e24b2c64b010d07376e254f58db1bfd558/output/AndroidManifest.xml:26:19-91
activity#com.google.android.gms.common.api.GoogleApiActivity
ADDED from [com.google.android.gms:play-services-base:10.0.1] /home/d3fkon/.android/build-cache/1c2d4201bf3f86bdeb563da215ab0dfd31d290dc/output/AndroidManifest.xml:19:9-172
	android:exported
		ADDED from [com.google.android.gms:play-services-base:10.0.1] /home/d3fkon/.android/build-cache/1c2d4201bf3f86bdeb563da215ab0dfd31d290dc/output/AndroidManifest.xml:19:146-170
	android:theme
		ADDED from [com.google.android.gms:play-services-base:10.0.1] /home/d3fkon/.android/build-cache/1c2d4201bf3f86bdeb563da215ab0dfd31d290dc/output/AndroidManifest.xml:19:86-145
	android:name
		ADDED from [com.google.android.gms:play-services-base:10.0.1] /home/d3fkon/.android/build-cache/1c2d4201bf3f86bdeb563da215ab0dfd31d290dc/output/AndroidManifest.xml:19:19-85
service#com.google.firebase.messaging.FirebaseMessagingService
ADDED from [com.google.firebase:firebase-messaging:10.0.1] /home/d3fkon/.android/build-cache/48f41dea4c9593a6c2c88bf5a489fed083dcea41/output/AndroidManifest.xml:23:9-27:19
	android:exported
		ADDED from [com.google.firebase:firebase-messaging:10.0.1] /home/d3fkon/.android/build-cache/48f41dea4c9593a6c2c88bf5a489fed083dcea41/output/AndroidManifest.xml:23:88-111
	android:name
		ADDED from [com.google.firebase:firebase-messaging:10.0.1] /home/d3fkon/.android/build-cache/48f41dea4c9593a6c2c88bf5a489fed083dcea41/output/AndroidManifest.xml:23:18-87
intent-filter#com.google.firebase.MESSAGING_EVENT
ADDED from [com.google.firebase:firebase-messaging:10.0.1] /home/d3fkon/.android/build-cache/48f41dea4c9593a6c2c88bf5a489fed083dcea41/output/AndroidManifest.xml:24:13-26:29
	android:priority
		ADDED from [com.google.firebase:firebase-messaging:10.0.1] /home/d3fkon/.android/build-cache/48f41dea4c9593a6c2c88bf5a489fed083dcea41/output/AndroidManifest.xml:24:28-51
action#com.google.firebase.MESSAGING_EVENT
ADDED from [com.google.firebase:firebase-messaging:10.0.1] /home/d3fkon/.android/build-cache/48f41dea4c9593a6c2c88bf5a489fed083dcea41/output/AndroidManifest.xml:25:17-77
	android:name
		ADDED from [com.google.firebase:firebase-messaging:10.0.1] /home/d3fkon/.android/build-cache/48f41dea4c9593a6c2c88bf5a489fed083dcea41/output/AndroidManifest.xml:25:25-75
uses-permission#android.permission.WAKE_LOCK
ADDED from [com.google.firebase:firebase-analytics:10.0.1] /home/d3fkon/.android/build-cache/8333920c756b21f988ee817e1b817febccc5abe0/output/AndroidManifest.xml:22:5-67
MERGED from [com.google.firebase:firebase-analytics-impl:10.0.1] /home/d3fkon/.android/build-cache/979e4177301bd5a056e504f35421e801378346b1/output/AndroidManifest.xml:22:5-67
MERGED from [com.google.firebase:firebase-iid:10.0.1] /home/d3fkon/.android/build-cache/da0a27f6ccd78ea221aab6c9352a4fc501c88cb1/output/AndroidManifest.xml:21:5-67
	android:name
		ADDED from [com.google.firebase:firebase-analytics:10.0.1] /home/d3fkon/.android/build-cache/8333920c756b21f988ee817e1b817febccc5abe0/output/AndroidManifest.xml:22:22-65
receiver#com.google.android.gms.measurement.AppMeasurementReceiver
ADDED from [com.google.firebase:firebase-analytics:10.0.1] /home/d3fkon/.android/build-cache/8333920c756b21f988ee817e1b817febccc5abe0/output/AndroidManifest.xml:25:7-26:18
MERGED from [com.google.firebase:firebase-analytics-impl:10.0.1] /home/d3fkon/.android/build-cache/979e4177301bd5a056e504f35421e801378346b1/output/AndroidManifest.xml:25:7-26:18
	android:enabled
		ADDED from [com.google.firebase:firebase-analytics:10.0.1] /home/d3fkon/.android/build-cache/8333920c756b21f988ee817e1b817febccc5abe0/output/AndroidManifest.xml:25:90-112
	android:exported
		ADDED from [com.google.firebase:firebase-analytics:10.0.1] /home/d3fkon/.android/build-cache/8333920c756b21f988ee817e1b817febccc5abe0/output/AndroidManifest.xml:25:113-137
	android:name
		ADDED from [com.google.firebase:firebase-analytics:10.0.1] /home/d3fkon/.android/build-cache/8333920c756b21f988ee817e1b817febccc5abe0/output/AndroidManifest.xml:25:17-89
receiver#com.google.android.gms.measurement.AppMeasurementInstallReferrerReceiver
ADDED from [com.google.firebase:firebase-analytics:10.0.1] /home/d3fkon/.android/build-cache/8333920c756b21f988ee817e1b817febccc5abe0/output/AndroidManifest.xml:27:7-31:18
	android:enabled
		ADDED from [com.google.firebase:firebase-analytics:10.0.1] /home/d3fkon/.android/build-cache/8333920c756b21f988ee817e1b817febccc5abe0/output/AndroidManifest.xml:27:162-184
	android:permission
		ADDED from [com.google.firebase:firebase-analytics:10.0.1] /home/d3fkon/.android/build-cache/8333920c756b21f988ee817e1b817febccc5abe0/output/AndroidManifest.xml:27:105-161
	android:name
		ADDED from [com.google.firebase:firebase-analytics:10.0.1] /home/d3fkon/.android/build-cache/8333920c756b21f988ee817e1b817febccc5abe0/output/AndroidManifest.xml:27:17-104
intent-filter#com.android.vending.INSTALL_REFERRER
ADDED from [com.google.firebase:firebase-analytics:10.0.1] /home/d3fkon/.android/build-cache/8333920c756b21f988ee817e1b817febccc5abe0/output/AndroidManifest.xml:28:11-30:27
action#com.android.vending.INSTALL_REFERRER
ADDED from [com.google.firebase:firebase-analytics:10.0.1] /home/d3fkon/.android/build-cache/8333920c756b21f988ee817e1b817febccc5abe0/output/AndroidManifest.xml:29:15-76
	android:name
		ADDED from [com.google.firebase:firebase-analytics:10.0.1] /home/d3fkon/.android/build-cache/8333920c756b21f988ee817e1b817febccc5abe0/output/AndroidManifest.xml:29:23-74
service#com.google.android.gms.measurement.AppMeasurementService
ADDED from [com.google.firebase:firebase-analytics:10.0.1] /home/d3fkon/.android/build-cache/8333920c756b21f988ee817e1b817febccc5abe0/output/AndroidManifest.xml:32:7-137
MERGED from [com.google.firebase:firebase-analytics-impl:10.0.1] /home/d3fkon/.android/build-cache/979e4177301bd5a056e504f35421e801378346b1/output/AndroidManifest.xml:27:7-137
	android:enabled
		ADDED from [com.google.firebase:firebase-analytics:10.0.1] /home/d3fkon/.android/build-cache/8333920c756b21f988ee817e1b817febccc5abe0/output/AndroidManifest.xml:32:88-110
	android:exported
		ADDED from [com.google.firebase:firebase-analytics:10.0.1] /home/d3fkon/.android/build-cache/8333920c756b21f988ee817e1b817febccc5abe0/output/AndroidManifest.xml:32:111-135
	android:name
		ADDED from [com.google.firebase:firebase-analytics:10.0.1] /home/d3fkon/.android/build-cache/8333920c756b21f988ee817e1b817febccc5abe0/output/AndroidManifest.xml:32:16-87
uses-permission#com.google.android.c2dm.permission.RECEIVE
ADDED from [com.google.firebase:firebase-iid:10.0.1] /home/d3fkon/.android/build-cache/da0a27f6ccd78ea221aab6c9352a4fc501c88cb1/output/AndroidManifest.xml:22:5-81
	android:name
		ADDED from [com.google.firebase:firebase-iid:10.0.1] /home/d3fkon/.android/build-cache/da0a27f6ccd78ea221aab6c9352a4fc501c88cb1/output/AndroidManifest.xml:22:22-79
permission#${applicationId}.permission.C2D_MESSAGE
ADDED from [com.google.firebase:firebase-iid:10.0.1] /home/d3fkon/.android/build-cache/da0a27f6ccd78ea221aab6c9352a4fc501c88cb1/output/AndroidManifest.xml:24:5-109
	android:protectionLevel
		ADDED from [com.google.firebase:firebase-iid:10.0.1] /home/d3fkon/.android/build-cache/da0a27f6ccd78ea221aab6c9352a4fc501c88cb1/output/AndroidManifest.xml:24:72-107
	android:name
		ADDED from [com.google.firebase:firebase-iid:10.0.1] /home/d3fkon/.android/build-cache/da0a27f6ccd78ea221aab6c9352a4fc501c88cb1/output/AndroidManifest.xml:24:17-71
uses-permission#${applicationId}.permission.C2D_MESSAGE
ADDED from [com.google.firebase:firebase-iid:10.0.1] /home/d3fkon/.android/build-cache/da0a27f6ccd78ea221aab6c9352a4fc501c88cb1/output/AndroidManifest.xml:26:5-78
	android:name
		ADDED from [com.google.firebase:firebase-iid:10.0.1] /home/d3fkon/.android/build-cache/da0a27f6ccd78ea221aab6c9352a4fc501c88cb1/output/AndroidManifest.xml:26:22-76
receiver#com.google.firebase.iid.FirebaseInstanceIdReceiver
ADDED from [com.google.firebase:firebase-iid:10.0.1] /home/d3fkon/.android/build-cache/da0a27f6ccd78ea221aab6c9352a4fc501c88cb1/output/AndroidManifest.xml:30:9-36:20
	android:exported
		ADDED from [com.google.firebase:firebase-iid:10.0.1] /home/d3fkon/.android/build-cache/da0a27f6ccd78ea221aab6c9352a4fc501c88cb1/output/AndroidManifest.xml:30:85-108
	android:permission
		ADDED from [com.google.firebase:firebase-iid:10.0.1] /home/d3fkon/.android/build-cache/da0a27f6ccd78ea221aab6c9352a4fc501c88cb1/output/AndroidManifest.xml:30:109-169
	android:name
		ADDED from [com.google.firebase:firebase-iid:10.0.1] /home/d3fkon/.android/build-cache/da0a27f6ccd78ea221aab6c9352a4fc501c88cb1/output/AndroidManifest.xml:30:19-84
intent-filter#${applicationId}+com.google.android.c2dm.intent.RECEIVE+com.google.android.c2dm.intent.REGISTRATION
ADDED from [com.google.firebase:firebase-iid:10.0.1] /home/d3fkon/.android/build-cache/da0a27f6ccd78ea221aab6c9352a4fc501c88cb1/output/AndroidManifest.xml:31:13-35:29
action#com.google.android.c2dm.intent.RECEIVE
ADDED from [com.google.firebase:firebase-iid:10.0.1] /home/d3fkon/.android/build-cache/da0a27f6ccd78ea221aab6c9352a4fc501c88cb1/output/AndroidManifest.xml:32:17-80
	android:name
		ADDED from [com.google.firebase:firebase-iid:10.0.1] /home/d3fkon/.android/build-cache/da0a27f6ccd78ea221aab6c9352a4fc501c88cb1/output/AndroidManifest.xml:32:25-78
action#com.google.android.c2dm.intent.REGISTRATION
ADDED from [com.google.firebase:firebase-iid:10.0.1] /home/d3fkon/.android/build-cache/da0a27f6ccd78ea221aab6c9352a4fc501c88cb1/output/AndroidManifest.xml:33:17-85
	android:name
		ADDED from [com.google.firebase:firebase-iid:10.0.1] /home/d3fkon/.android/build-cache/da0a27f6ccd78ea221aab6c9352a4fc501c88cb1/output/AndroidManifest.xml:33:25-83
category#${applicationId}
ADDED from [com.google.firebase:firebase-iid:10.0.1] /home/d3fkon/.android/build-cache/da0a27f6ccd78ea221aab6c9352a4fc501c88cb1/output/AndroidManifest.xml:34:17-60
	android:name
		ADDED from [com.google.firebase:firebase-iid:10.0.1] /home/d3fkon/.android/build-cache/da0a27f6ccd78ea221aab6c9352a4fc501c88cb1/output/AndroidManifest.xml:34:27-58
receiver#com.google.firebase.iid.FirebaseInstanceIdInternalReceiver
ADDED from [com.google.firebase:firebase-iid:10.0.1] /home/d3fkon/.android/build-cache/da0a27f6ccd78ea221aab6c9352a4fc501c88cb1/output/AndroidManifest.xml:40:9-119
	android:exported
		ADDED from [com.google.firebase:firebase-iid:10.0.1] /home/d3fkon/.android/build-cache/da0a27f6ccd78ea221aab6c9352a4fc501c88cb1/output/AndroidManifest.xml:40:93-117
	android:name
		ADDED from [com.google.firebase:firebase-iid:10.0.1] /home/d3fkon/.android/build-cache/da0a27f6ccd78ea221aab6c9352a4fc501c88cb1/output/AndroidManifest.xml:40:19-92
service#com.google.firebase.iid.FirebaseInstanceIdService
ADDED from [com.google.firebase:firebase-iid:10.0.1] /home/d3fkon/.android/build-cache/da0a27f6ccd78ea221aab6c9352a4fc501c88cb1/output/AndroidManifest.xml:44:9-48:19
	android:exported
		ADDED from [com.google.firebase:firebase-iid:10.0.1] /home/d3fkon/.android/build-cache/da0a27f6ccd78ea221aab6c9352a4fc501c88cb1/output/AndroidManifest.xml:44:83-106
	android:name
		ADDED from [com.google.firebase:firebase-iid:10.0.1] /home/d3fkon/.android/build-cache/da0a27f6ccd78ea221aab6c9352a4fc501c88cb1/output/AndroidManifest.xml:44:18-82
intent-filter#com.google.firebase.INSTANCE_ID_EVENT
ADDED from [com.google.firebase:firebase-iid:10.0.1] /home/d3fkon/.android/build-cache/da0a27f6ccd78ea221aab6c9352a4fc501c88cb1/output/AndroidManifest.xml:45:13-47:29
	android:priority
		ADDED from [com.google.firebase:firebase-iid:10.0.1] /home/d3fkon/.android/build-cache/da0a27f6ccd78ea221aab6c9352a4fc501c88cb1/output/AndroidManifest.xml:45:28-51
action#com.google.firebase.INSTANCE_ID_EVENT
ADDED from [com.google.firebase:firebase-iid:10.0.1] /home/d3fkon/.android/build-cache/da0a27f6ccd78ea221aab6c9352a4fc501c88cb1/output/AndroidManifest.xml:46:17-79
	android:name
		ADDED from [com.google.firebase:firebase-iid:10.0.1] /home/d3fkon/.android/build-cache/da0a27f6ccd78ea221aab6c9352a4fc501c88cb1/output/AndroidManifest.xml:46:25-77
provider#com.google.firebase.provider.FirebaseInitProvider
ADDED from [com.google.firebase:firebase-common:10.0.1] /home/d3fkon/.android/build-cache/8883bfcd89f23c7bb94bdf5a8ad7ebc1dfc6908c/output/AndroidManifest.xml:6:9-194
	android:authorities
		ADDED from [com.google.firebase:firebase-common:10.0.1] /home/d3fkon/.android/build-cache/8883bfcd89f23c7bb94bdf5a8ad7ebc1dfc6908c/output/AndroidManifest.xml:6:19-78
	android:exported
		ADDED from [com.google.firebase:firebase-common:10.0.1] /home/d3fkon/.android/build-cache/8883bfcd89f23c7bb94bdf5a8ad7ebc1dfc6908c/output/AndroidManifest.xml:6:144-168
	android:initOrder
		ADDED from [com.google.firebase:firebase-common:10.0.1] /home/d3fkon/.android/build-cache/8883bfcd89f23c7bb94bdf5a8ad7ebc1dfc6908c/output/AndroidManifest.xml:6:169-192
	android:name
		ADDED from [com.google.firebase:firebase-common:10.0.1] /home/d3fkon/.android/build-cache/8883bfcd89f23c7bb94bdf5a8ad7ebc1dfc6908c/output/AndroidManifest.xml:6:79-143
meta-data#com.google.android.gms.version
ADDED from [com.google.android.gms:play-services-basement:10.0.1] /home/d3fkon/.android/build-cache/37fbf1099b28c615e072aafb9aeea843ee0090ab/output/AndroidManifest.xml:20:9-121
	android:value
		ADDED from [com.google.android.gms:play-services-basement:10.0.1] /home/d3fkon/.android/build-cache/37fbf1099b28c615e072aafb9aeea843ee0090ab/output/AndroidManifest.xml:20:66-119
	android:name
		ADDED from [com.google.android.gms:play-services-basement:10.0.1] /home/d3fkon/.android/build-cache/37fbf1099b28c615e072aafb9aeea843ee0090ab/output/AndroidManifest.xml:20:20-65
